{"collection":[{"tokenId":"76908163854940183085912245349126471545140145985655435949631257024734289858932","name":"PSA 10 Gem Mint 2023 Ruler of the Black Flame #134 Charizard EX","setName":"Ruler of the Black Flame","cardNumber":"134","pokemonName":"Charizard EX","ownerAddress":"0xaa6daa7a39bbfd26618aedbf4b99781370cc1b5b","askPriceInUSDT":"459000000000000000000","fmvPriceInUSD":"62800","vaultLocation":"platform","grade":"10 Gem Mint","gradingCompany":"PSA","year":2023,"attributes":[{"trait":"Serial","value":"PSA118713972"},{"trait":"Language","value":"Japanese"}],"owner":null},{"tokenId":"62649257077672389758348152462073699443447942234026281096182609178350655849424","name":"PSA 10 Gem Mint 2023 Pokemon Japanese Sv2a-Pokemon 151 #185 Charizard Ex","setName":"Pokemon Japanese Sv2a-Pokemon 151","cardNumber":"185","pokemonName":"Charizard Ex","ownerAddress":"0x6ef2cd9f386e18ef285939c2b27caaa8ccd23ad5","askPriceInUSDT":"133620000000000000000","fmvPriceInUSD":"19303","vaultLocation":"platform","grade":"10 Gem Mint","gradingCompany":"PSA","year":2023,"attributes":[{"trait":"Serial","value":"PSA122284933"},{"trait":"Language","value":"Japanese"}],"owner":null}],"pagination":{"total":189,"limit":2,"offset":0,"hasMore":true}}