{"collection":[{"tokenId":"57320856601802314042402797541500752585604678304986961041913277870501763518253","name":"PSA 10 Gem Mint 2018 Pokemon Japanese SM-P Promos #288/SM-P Pikachu","setName":"Pokemon Japanese SM-P Promos","cardNumber":"288/SM-P","pokemonName":"Pikachu","ownerAddress":"0x14c64192a1e13a9b6aaef8591a7040f99b29fe75","askPriceInUSDT":"NO-ASK-PRICE","fmvPriceInUSD":"1900000","vaultLocation":"platform","grade":"10 Gem Mint","gradingCompany":"PSA","year":2018,"attributes":[{"trait":"Serial","value":"PSA52269439"},{"trait":"Language","value":"Japanese"}],"owner":{"username":"YAMACARDO"}},{"tokenId":"14048598135356494445880002893299442798408079057063850185383232757658383998591","name":"PSA 10 Gem Mint 2018 Pokemon Japanese SM-P Promos #287/SM-P Eevee","setName":"Pokemon Japanese SM-P Promos","cardNumber":"287/SM-P","pokemonName":"Eevee","ownerAddress":"0x14c64192a1e13a9b6aaef8591a7040f99b29fe75","askPriceInUSDT":"NO-ASK-PRICE","fmvPriceInUSD":"1050000","vaultLocation":"platform","grade":"10 Gem Mint","gradingCompany":"PSA","year":2018,"attributes":[{"trait":"Serial","value":"PSA52269442"},{"trait":"Language","value":"Japanese"}],"owner":{"username":"YAMACARDO"}}],"pagination":{"total":4256,"limit":2,"offset":0,"hasMore":true}}