{"collection":[{"tokenId":"97889483425184034577892620702722354035276546848383681447916690031829631018227","name":"PSA 10 Gem Mint 2018 Pokemon Japanese Sun & Moon Dragon Storm #059 Zinnia","setName":"Pokemon Japanese Sun & Moon Dragon Storm","cardNumber":"059","pokemonName":"Zinnia","ownerAddress":"0x1aca80f2a884220691120b023107cfce2abb30f0","askPriceInUSDT":"459000000000000000000","fmvPriceInUSD":"51045","vaultLocation":"platform","grade":"10 Gem Mint","gradingCompany":"PSA","year":2018,"attributes":[{"trait":"Serial","value":"PSA75868807"},{"trait":"Language","value":"Japanese"}],"owner":null},{"tokenId":"51850845540882534722475546339891702121215882959249457332134404331222367497944","name":"PSA 10 Gem Mint 2019 Pokemon Japanese Sun & Moon Tag Team Gx All Stars #183 Weavile Gx","setName":"Pokemon Japanese Sun & Moon Tag Team Gx All Stars","cardNumber":"183","pokemonName":"Weavile Gx","ownerAddress":"0xb0518f1ad5eccf12d1de799dcd28f3979da9f2b4","askPriceInUSDT":"153000000000000000000","fmvPriceInUSD":"4000","vaultLocation":"platform","grade":"10 Gem Mint","gradingCompany":"PSA","year":2019,"attributes":[{"trait":"Serial","value":"PSA71261173"},{"trait":"Language","value":"Japanese"}],"owner":null}],"pagination":{"total":4024,"limit":2,"offset":0,"hasMore":true}}